{
  "prepare_queue": {
    "installed": [],
    "uninstalled": []
  },
  "config_munge": {
    "files": {}
  },
  "installed_plugins": {
    "cordova-plugin-whitelist": {
      "PACKAGE_NAME": "com.bookingsunbeds.customer"
    },
    "cordova-plugin-device": {
      "PACKAGE_NAME": "com.bookingsunbeds.customer"
    },
    "cordova-plugin-inappbrowser": {
      "PACKAGE_NAME": "com.bookingsunbeds.customer"
    },
    "uk.co.workingedge.phonegap.plugin.launchnavigator": {
      "OKHTTP_VERSION": "3.+",
      "PACKAGE_NAME": "com.bookingsunbeds.customer"
    },
    "cordova-plugin-crop": {
      "PACKAGE_NAME": "com.bookingsunbeds.customer"
    },
    "cordova-plugin-splashscreen": {
      "PACKAGE_NAME": "com.bookingsunbeds.customer"
    },
    "cordova-plugin-ionic-webview": {
      "PACKAGE_NAME": "com.bookingsunbeds.customer"
    },
    "cordova-plugin-otp-auto-verification": {
      "PACKAGE_NAME": "com.bookingsunbeds.customer"
    },
    "com-badrit-base64": {
      "PACKAGE_NAME": "com.bookingsunbeds.customer"
    },
    "cordova-plugin-screen-orientation": {
      "PACKAGE_NAME": "com.bookingsunbeds.customer"
    },
    "ionic-plugin-keyboard": {
      "PACKAGE_NAME": "com.bookingsunbeds.customer"
    },
    "cordova-plugin-android-permissions": {
      "PACKAGE_NAME": "com.bookingsunbeds.customer"
    },
    "cordova-plugin-camera": {
      "PACKAGE_NAME": "com.bookingsunbeds.customer"
    },
    "cordova-plugin-ios-camera-permissions": {
      "PACKAGE_NAME": "com.bookingsunbeds.customer"
    },
    "cordova-plugin-statusbar": {
      "PACKAGE_NAME": "com.bookingsunbeds.customer"
    },
    "cordova-plugin-geolocation": {
      "PACKAGE_NAME": "com.bookingsunbeds.customer"
    },
    "cordova-plugin-file": {
      "PACKAGE_NAME": "com.bookingsunbeds.customer"
    },
    "phonegap-plugin-push": {
      "ANDROID_SUPPORT_V13_VERSION": "27.+",
      "FCM_VERSION": "11.6.2",
      "PACKAGE_NAME": "com.bookingsunbeds.customer"
    },
    "cordova-plugin-appavailability": {
      "PACKAGE_NAME": "com.bookingsunbeds.customer"
    },
    "cordova-plugin-request-location-accuracy": {
      "PACKAGE_NAME": "com.bookingsunbeds.customer"
    },
    "cordova.plugins.diagnostic": {
      "PACKAGE_NAME": "com.bookingsunbeds.customer"
    }
  },
  "dependent_plugins": {
    "cordova-plugin-actionsheet": {
      "PACKAGE_NAME": "com.bookingsunbeds.customer"
    },
    "cordova-plugin-dialogs": {
      "PACKAGE_NAME": "com.bookingsunbeds.customer"
    },
    "es6-promise-plugin": {
      "PACKAGE_NAME": "com.bookingsunbeds.customer"
    },
    "cordova-support-google-services": {
      "PACKAGE_NAME": "com.bookingsunbeds.customer"
    },
    "phonegap-plugin-multidex": {
      "PACKAGE_NAME": "com.bookingsunbeds.customer"
    }
  }
}